…
To get summaries of the respondent positions, we would specify
`par = "chi"`. If we want the results to match the rows in the original
data set by reporting rows of NAs for respondents who were not included
in the analysis, we would add the argument `format_orig = TRUE`:

``` r
get_est(fit_hbam, "chi", format_orig = TRUE)
```

    ## # A tibble: 888 × 6
    ##       mean `2.5%`   `50%` `97.5%` n_eff   Rhat
    ##      <dbl>  <dbl>   <dbl>   <dbl> <dbl>  <dbl>
    ##  1  1.46   -2.84   1.83     3.89  3641.  1.000
    ##  2  1.59   -1.72   1.65     3.44  3511.  1.00 
    ##  3  1.58   -1.12   1.63     2.78  4198.  0.999
    ##  4  0.0147 -1.99   0.0451   1.98  3946.  1.00 
    ##  5 -0.470  -2.14  -0.558    1.27  4316.  1.00 
    ##  6  1.83   -3.51   2.19     4.22  3633.  1.000
    ##  7 -0.188  -1.18  -0.184    0.712 4305.  1.000
    ##  8  1.04   -1.72   1.12     2.30  3484.  1.00 
    ##  9 NA      NA     NA       NA       NA  NA    
    ## 10  0.694  -0.964  0.736    2.00  3818.  1.00 
    ## # ℹ 878 more rows
…
