Hierarchical Bayesian Aldrich-McKelvey Scaling in R via Stan • hbamr
…
## # A tibble: 6 × 6
##     mean `2.5%`  `50%` `97.5%` n_eff  Rhat
##    <dbl>  <dbl>  <dbl>   <dbl> <dbl> <dbl>
## 1 -1.02  -1.10  -1.02   -0.941 2160. 1.00 
## 2  1.62   1.55   1.62    1.68  2013. 1.00 
## 3 -1.68  -1.76  -1.68   -1.60  2473. 1.00 
## 4 -0.453 -0.574 -0.453  -0.333 3159. 1.00 
## 5  1.42   1.36   1.42    1.48  1912. 1.00 
## 6 -1.19  -1.25  -1.19   -1.13  2404. 0.999

The equivalent call for the respondent positions is:

get_est(fit_hbam, "chi")

## # A tibble: 643 × 6
##       mean `2.5%`    `50%` `97.5%` n_eff  Rhat
##      <dbl>  <dbl>    <dbl>   <dbl> <dbl> <dbl>
##  1  0.965  -1.96   1.27      2.62  2862.  1.00
##  2  1.21   -0.613  1.26      2.57  3421.  1.00
##  3  1.39   -0.121  1.44      2.35  3212.  1.00
##  4  0.0128 -1.80   0.00469   1.76  3745.  1.00
##  5 -0.197  -2.04  -0.253     1.89  4089.  1.00
##  6  1.45   -1.78   1.68      2.94  2336.  1.00
##  7 -0.157  -1.15  -0.159     0.857 2975.  1.00
##  8  0.943  -0.738  0.991     2.01  2924.  1.00
##  9  0.587  -0.857  0.623     1.73  3691.  1.00
## 10  0.125  -1.02   0.136     1.14  3654.  1.00
## # ℹ 633 more rows
…
